{
  "default_cycles": {
    "Implied": 2,
    "Immediate": 2,
    "Accumulator": 2,
    "ZeroPageAbsolute": 3,
    "ZeroPage_X": 4,
    "ZeroPage_Y": 4,
    "Indirect": 5,
    "Absolute": 4,
    "Absolute_X": 4,
    "Absolute_Y": 4,
    "IndexedIndirect": 6,
    "IndirectIndexed": 5,
    "Relative": 2
  },
  "output_format": {
    "Implied": "",
    "Immediate": "#oper",
    "Accumulator": "A",
    "ZeroPageAbsolute": "oper",
    "ZeroPage_X": "oper, X",
    "ZeroPage_Y": "oper, Y",
    "Absolute": "oper",
    "Absolute_X": "oper, X",
    "Absolute_Y": "oper, Y",
    "Relative": "oper",
    "Indirect": "(oper)",
    "IndexedIndirect": "(oper, X)",
    "IndirectIndexed": "(oper), Y"
  },
  "instructions": [
    {
      "name": "ADC",
      "operations": [
        { "code": "69", "address": "Immediate" },
        { "code": "65", "address": "ZeroPageAbsolute" },
        { "code": "75", "address": "ZeroPage_X" },
        { "code": "6D", "address": "Absolute" },
        { "code": "7D", "address": "Absolute_X" },
        { "code": "79", "address": "Absolute_Y" },
        { "code": "61", "address": "IndexedIndirect" },
        { "code": "71", "address": "IndirectIndexed" }
      ]
    },
    {
      "name": "AND",
      "operations": [
        { "code": "29", "address": "Immediate" },
        { "code": "25", "address": "ZeroPageAbsolute" },
        { "code": "35", "address": "ZeroPage_X" },
        { "code": "2D", "address": "Absolute" },
        { "code": "3D", "address": "Absolute_X" },
        { "code": "39", "address": "Absolute_Y" },
        { "code": "21", "address": "IndexedIndirect" },
        { "code": "31", "address": "IndirectIndexed" }
      ]
    },
    {
      "name": "ASL",
      "operations": [
        { "code": "0A", "address": "Accumulator" },
        { "code": "06", "address": "ZeroPageAbsolute", "cycles": 5 },
        { "code": "16", "address": "ZeroPage_X", "cycles": 6 },
        { "code": "0E", "address": "Absolute", "cycles": 6 },
        { "code": "1E", "address": "Absolute_X", "cycles": 7 }
      ]
    },
    {
      "name": "BRK",
      "operations": [{ "code": "00", "address": "Implied", "cycles": 7 }]
    },
    {
      "name": "NOP",
      "operations": [{ "code": "EA", "address": "Implied", "cycles": 2 }]
    },
    {
      "name": "BCC",
      "operations": [{ "code": "90", "address": "Relative" }]
    },
    {
      "name": "BCS",
      "operations": [{ "code": "B0", "address": "Relative" }]
    },
    {
      "name": "BEQ",
      "operations": [{ "code": "F0", "address": "Relative" }]
    },
    {
      "name": "BMI",
      "operations": [{ "code": "30", "address": "Relative" }]
    },
    {
      "name": "BNE",
      "operations": [{ "code": "D0", "address": "Relative" }]
    },
    {
      "name": "BPL",
      "operations": [{ "code": "10", "address": "Relative" }]
    },
    {
      "name": "BVC",
      "operations": [{ "code": "50", "address": "Relative" }]
    },
    {
      "name": "BVS",
      "operations": [{ "code": "70", "address": "Relative" }]
    },
    {
      "name": "CLC",
      "operations": [{ "code": "18", "address": "Implied" }]
    },
    {
      "name": "CLD",
      "operations": [{ "code": "D8", "address": "Implied" }]
    },
    {
      "name": "CLI",
      "operations": [{ "code": "58", "address": "Implied" }]
    },
    {
      "name": "CLV",
      "operations": [{ "code": "B8", "address": "Implied" }]
    },
    {
      "name": "BIT",
      "operations": [
        { "code": "24", "address": "ZeroPageAbsolute" },
        { "code": "2C", "address": "Absolute" }
      ]
    },

    {
      "name": "SBC",
      "operations": [
        { "code": "E9", "address": "Immediate" },
        { "code": "E5", "address": "ZeroPageAbsolute" },
        { "code": "F5", "address": "ZeroPage_X" },
        { "code": "ED", "address": "Absolute" },
        { "code": "FD", "address": "Absolute_X" },
        { "code": "F9", "address": "Absolute_Y" },
        { "code": "E1", "address": "IndexedIndirect" },
        { "code": "F1", "address": "IndirectIndexed" }
      ]
    },
    {
      "name": "CMP",
      "operations": [
        { "code": "C9", "address": "Immediate" },
        { "code": "C5", "address": "ZeroPageAbsolute" },
        { "code": "D5", "address": "ZeroPage_X" },
        { "code": "CD", "address": "Absolute" },
        { "code": "DD", "address": "Absolute_X" },
        { "code": "D9", "address": "Absolute_Y" },
        { "code": "C1", "address": "IndexedIndirect" },
        { "code": "D1", "address": "IndirectIndexed" }
      ]
    },
    {
      "name": "CPX",
      "operations": [
        { "code": "E0", "address": "Immediate" },
        { "code": "E4", "address": "ZeroPageAbsolute" },
        { "code": "EC", "address": "Absolute" }
      ]
    },
    {
      "name": "CPY",
      "operations": [
        { "code": "C0", "address": "Immediate" },
        { "code": "C4", "address": "ZeroPageAbsolute" },
        { "code": "CC", "address": "Absolute" }
      ]
    },
    {
      "name": "INC",
      "operations": [
        { "code": "E6", "address": "ZeroPageAbsolute" },
        { "code": "F6", "address": "ZeroPage_X" },
        { "code": "EE", "address": "Absolute" },
        { "code": "FE", "address": "Absolute_X" }
      ]
    },
    {
      "name": "INX",
      "operations": [{ "code": "E8", "address": "Implied" }]
    },
    {
      "name": "INY",
      "operations": [{ "code": "C8", "address": "Implied" }]
    },
    {
      "name": "DEC",
      "operations": [
        { "code": "C6", "address": "ZeroPageAbsolute" },
        { "code": "D6", "address": "ZeroPage_X" },
        { "code": "CE", "address": "Absolute" },
        { "code": "DE", "address": "Absolute_X" }
      ]
    },
    {
      "name": "DEX",
      "operations": [{ "code": "CA", "address": "Implied" }]
    },
    {
      "name": "DEY",
      "operations": [{ "code": "88", "address": "Implied" }]
    },
    {
      "name": "JMP",
      "operations": [
        { "code": "4C", "address": "Absolute", "cycles": 3 },
        { "code": "6C", "address": "Indirect", "cycles": 5 }
      ]
    },
    {
      "name": "JSR",
      "operations": [{ "code": "20", "address": "Absolute", "cycles": 6 }]
    },

    {
      "name": "LSR",
      "operations": [
        { "code": "4A", "address": "Accumulator" },
        { "code": "46", "address": "ZeroPageAbsolute", "cycles": 5 },
        { "code": "56", "address": "ZeroPage_X", "cycles": 6 },
        { "code": "4E", "address": "Absolute", "cycles": 6 },
        { "code": "5E", "address": "Absolute_X", "cycles": 7 }
      ]
    },
    {
      "name": "ROL",
      "operations": [
        { "code": "2A", "address": "Accumulator" },
        { "code": "26", "address": "ZeroPageAbsolute", "cycles": 5 },
        { "code": "36", "address": "ZeroPage_X", "cycles": 6 },
        { "code": "2E", "address": "Absolute", "cycles": 6 },
        { "code": "3E", "address": "Absolute_X", "cycles": 7 }
      ]
    },
    {
      "name": "ROR",
      "operations": [
        { "code": "6A", "address": "Accumulator" },
        { "code": "66", "address": "ZeroPageAbsolute", "cycles": 5 },
        { "code": "76", "address": "ZeroPage_X", "cycles": 6 },
        { "code": "6E", "address": "Absolute", "cycles": 6 },
        { "code": "7E", "address": "Absolute_X", "cycles": 7 }
      ]
    },

    {
      "name": "ORA",
      "operations": [
        { "code": "09", "address": "Immediate" },
        { "code": "05", "address": "ZeroPageAbsolute" },
        { "code": "15", "address": "ZeroPage_X" },
        { "code": "0D", "address": "Absolute" },
        { "code": "1D", "address": "Absolute_X" },
        { "code": "19", "address": "Absolute_Y" },
        { "code": "01", "address": "IndexedIndirect" },
        { "code": "11", "address": "IndirectIndexed" }
      ]
    },
    {
      "name": "EOR",
      "operations": [
        { "code": "49", "address": "Immediate" },
        { "code": "45", "address": "ZeroPageAbsolute" },
        { "code": "55", "address": "ZeroPage_X" },
        { "code": "4D", "address": "Absolute" },
        { "code": "5D", "address": "Absolute_X" },
        { "code": "59", "address": "Absolute_Y" },
        { "code": "41", "address": "IndexedIndirect" },
        { "code": "51", "address": "IndirectIndexed" }
      ]
    },
    {
      "name": "LDA",
      "operations": [
        { "code": "A9", "address": "Immediate" },
        { "code": "A5", "address": "ZeroPageAbsolute" },
        { "code": "B5", "address": "ZeroPage_X" },
        { "code": "AD", "address": "Absolute" },
        { "code": "BD", "address": "Absolute_X" },
        { "code": "B9", "address": "Absolute_Y" },
        { "code": "A1", "address": "IndexedIndirect" },
        { "code": "B1", "address": "IndirectIndexed" }
      ]
    },
    {
      "name": "LDX",
      "operations": [
        { "code": "A2", "address": "Immediate" },
        { "code": "A6", "address": "ZeroPageAbsolute" },
        { "code": "B6", "address": "ZeroPage_Y" },
        { "code": "AE", "address": "Absolute" },
        { "code": "BE", "address": "Absolute_Y" }
      ]
    },
    {
      "name": "LDY",
      "operations": [
        { "code": "A0", "address": "Immediate" },
        { "code": "A4", "address": "ZeroPageAbsolute" },
        { "code": "B4", "address": "ZeroPage_X" },
        { "code": "AC", "address": "Absolute" },
        { "code": "BC", "address": "Absolute_X" }
      ]
    },
    {
      "name": "PHA",
      "operations": [{ "code": "48", "address": "Implied", "cycles": 3 }]
    },
    {
      "name": "PHP",
      "operations": [{ "code": "08", "address": "Implied", "cycles": 3 }]
    },
    {
      "name": "PLA",
      "operations": [{ "code": "68", "address": "Implied", "cycles": 4 }]
    },
    {
      "name": "PLP",
      "operations": [{ "code": "28", "address": "Implied", "cycles": 4 }]
    },
    {
      "name": "RTI",
      "operations": [{ "code": "40", "address": "Implied", "cycles": 6 }]
    },
    {
      "name": "RTS",
      "operations": [{ "code": "60", "address": "Implied", "cycles": 6 }]
    },
    {
      "name": "SEC",
      "operations": [{ "code": "38", "address": "Implied" }]
    },
    {
      "name": "SED",
      "operations": [{ "code": "F8", "address": "Implied" }]
    },
    {
      "name": "SEI",
      "operations": [{ "code": "78", "address": "Implied" }]
    },
    {
      "name": "STA",
      "operations": [
        { "code": "85", "address": "ZeroPageAbsolute" },
        { "code": "95", "address": "ZeroPage_X" },
        { "code": "8D", "address": "Absolute" },
        { "code": "9D", "address": "Absolute_X", "cycles": 5 },
        { "code": "99", "address": "Absolute_Y", "cycles": 5 },
        { "code": "81", "address": "IndexedIndirect", "cycles": 6 },
        { "code": "91", "address": "IndirectIndexed", "cycles": 6 }
      ]
    },
    {
      "name": "STX",
      "operations": [
        { "code": "86", "address": "ZeroPageAbsolute" },
        { "code": "96", "address": "ZeroPage_Y" },
        { "code": "8E", "address": "Absolute" }
      ]
    },
    {
      "name": "STY",
      "operations": [
        { "code": "84", "address": "ZeroPageAbsolute" },
        { "code": "94", "address": "ZeroPage_X" },
        { "code": "8C", "address": "Absolute" }
      ]
    },
    {
      "name": "TAX",
      "operations": [{ "code": "AA", "address": "Implied" }]
    },
    {
      "name": "TAY",
      "operations": [{ "code": "A8", "address": "Implied" }]
    },
    {
      "name": "TSX",
      "operations": [{ "code": "BA", "address": "Implied" }]
    },
    {
      "name": "TXA",
      "operations": [{ "code": "8A", "address": "Implied" }]
    },
    {
      "name": "TXS",
      "operations": [{ "code": "9A", "address": "Implied" }]
    },
    {
      "name": "TYA",
      "operations": [{ "code": "98", "address": "Implied" }]
    }
  ]
}
